{
  "factories": [
    {
      "name": "本社・東郷工場",
      "postalcode": "470-0151",
      "address": "愛知県愛知郡東郷町大字諸輪字北山158番地",
      "latlng": "https://goo.gl/maps/zwt7Di1CmLC2",
      "tel": "<0561> 38-2541（代表）",
      "fax": "<0561> 38-2545",
      "facade": "honsha.png"
    },
    {
      "name": "豊田第1工場",
      "postalcode": "473-0932",
      "address": "愛知県豊田市堤町寺池71番地",
      "latlng": "https://goo.gl/maps/2JERzhLLmeR2",
      "tel": "<0565> 52-6755",
      "fax": "<0565> 52-8196",
      "facade": "toyota1.png"
    },
    {
      "name": "豊田第2工場",
      "postalcode": "473-0932",
      "address": "愛知県豊田市堤町寺池71番地",
      "latlng": "https://goo.gl/maps/2JERzhLLmeR2",
      "tel": "<0565> 52-6755",
      "fax": "<0565> 52-8196",
      "facade": "toyota2.png"
    },
    {
      "name": "三品松菱タイランド",
      "postalcode": "",
      "address": "47/15　Pinthong Industrial Estate (Phase 3)Moo 6 Tambol Bowin Amphur Sriracha Province Chonburi 20230",
      "latlng": "https://goo.gl/maps/UamVipU4F5D2",
      "tel": "<+66> -38110371",
      "fax": "<+66> -38110375",
      "facade": "tairando.png"
    }
  ]
}