{
  "factories": [
    {
      "name": "Head Office, Togo Plant",
      "postalcode": "470-0151",
      "address": "Kitayama 158, Morowa ,Togo-cho, Aichi-gun, Aichi-ken，Japan 470-0151",
      "latlng": "https://goo.gl/maps/zwt7Di1CmLC2",
      "tel": "+81-561-38-2541 (general inquiries)",
      "fax": "+81-561-38-2545",
      "facade": "honsha.png"
    },
    {
      "name": "Toyota Plant No. 1",
      "postalcode": "473-0932",
      "address": "Teraike 71, Tsutsumi-cho, Toyota-shi, Aichi-ken, Japan，473-0932",
      "latlng": "https://goo.gl/maps/2JERzhLLmeR2",
      "tel": "+81-565-52-6755",
      "fax": "+81-565-52-8196",
      "facade": "toyota1.png"
    },
    {
      "name": "Toyota Plant No. 2",
      "postalcode": "473-0932",
      "address": "Teraike 71, Tsutsumi-cho, Toyota-shi, Aichi-ken, Japan，473-0932",
      "latlng": "https://goo.gl/maps/2JERzhLLmeR2",
      "tel": "+81-565-52-6755",
      "fax": "+81-565-52-8196",
      "facade": "toyota2.png"
    },
    {
      "name": "Thailand Plant",
      "postalcode": "",
      "address": "47/15　Pinthong Industrial Estate (Phase 3)Moo 6 Tambol Bowin Amphur Sriracha Province Chonburi 20230",
      "latlng": "https://goo.gl/maps/UamVipU4F5D2",
      "tel": "+66-38110371",
      "fax": "+66-38110375",
      "facade": "tairando.png"
    }
  ]
}